Chapter 11 Example | R for Pogressive Campaigns
…
This is much better! But based on visual insepction the column headers are not properly matched. There are a few things that need to be sorted out: there are two date columns, there are commas and percents where numeric columns should be, the column headers are a little messy, and the table isn’t a tibble (this is just personal preference).

We will handle the final two issues first as they are easiest to deal with. The function clean_names() from janitor will handle the column headers, and as_tibble() will coerce the data.frame into a proper tibble. Save this semi-clean tibble into an object called polls.

polls <- session %>% 
  html_node(".polls-table.tracker") %>% 
  html_table(fill = TRUE) %>% 
  janitor::clean_names() %>% 
  as_tibble()

polls

## # A tibble: 114 x 59
##    x     dates pollster sample sample_2 biden sanders harris warren
##    <chr> <chr> <chr>    <chr>  <chr>    <chr> <chr>   <chr>  <chr> 
##  1 •     May … May 29-… B+Ips… 2,271    RV    31%     14%    6%    
##  2 •     May … May 29-… B+Ips… 2,525    A     30%     15%    6%    
##  3 •     Jun … Jun 2-4… BYouG… 500      RV    27%     15%    9%    
##  4 •     Jun … Jun 2-4… BYouG… 550      A     27%     16%    8%    
##  5 •     Jun … Jun 1-2… C+Har… 431      RV    35%     16%    4%    
##  6 •     May … May 27-… B-Mor… 16,587   LV    38%     19%    7%    
##  7 •     May … May 28-… A-CNN… 412      RV    32%     18%    8%    
##  8 •     May … May 29-… C+Har… 471      RV    36%     17%    8%    
##  9 •     May … May 28-… C+Har… 881      RV    ""      42%    37%   
## 10 •     May … May 28-… C+Har… 881      RV    41%     ""     38%   
## # … with 104 more rows, and 50 more variables: o_rourke <chr>,
## #   buttigieg <chr>, booker <chr>, klobuchar <chr>, castro <chr>,
## #   yang <chr>, gillibrand <chr>, hickenlooper <chr>, gabbard <chr>,
## #   delaney <chr>, inslee <chr>, ryan <chr>, bullock <chr>,
## #   de_blasio <chr>, bennet <chr>, williamson <chr>, gravel <chr>,
## #   swalwell <chr>, moulton <chr>, messam <chr>, h_clinton <chr>,
## #   bloomberg <chr>, m_obama <chr>, brown <chr>, kerry <chr>,
## #   abrams <chr>, holder <chr>, mc_auliffe <chr>, winfrey <chr>,
## #   ojeda <chr>, trump <chr>, cuomo <chr>, avenatti <chr>, kennedy <chr>,
…
Now we can try implementing the hacky solution. Here we will deselect the first column and reset the names using setNames(). Following, we will use the mutate_at() variant to remove the percent sign from every candidate column and coerce them into integer columns. Here we will sepecify which variables to not mutate at within vars().

It’s impor

polls %>% 
  select(-1) %>% 
  setNames(new_names)%>%
  select(-1) %>%
  mutate_at(vars(-c("dates", "pollster", "sample", "sample_2")), ~as.integer(str_remove(., "%"))) 

## Warning in (structure(function (..., .x = ..1, .y = ..2, . = ..1) : NAs
## introduced by coercion

## # A tibble: 114 x 57
##    dates pollster sample sample_2 biden sanders harris warren o_rourke
##    <chr> <chr>    <chr>  <chr>    <int>   <int>  <int>  <int>    <int>
##  1 May … B+Ipsos  2,271  RV          31      14      6      9        3
##  2 May … B+Ipsos  2,525  A           30      15      6      8        4
##  3 Jun … BYouGov  500    RV          27      15      9     12        2
##  4 Jun … BYouGov  550    A           27      16      8     11        2
##  5 Jun … C+Harri… 431    RV          35      16      4      5        4
##  6 May … B-Morni… 16,587 LV          38      19      7     10        4
##  7 May … A-CNN/S… 412    RV          32      18      8      7        5
##  8 May … C+Harri… 471    RV          36      17      8      5        4
##  9 May … C+Harri… 881    RV          NA      42     37     NA       NA
## 10 May … C+Harri… 881    RV          41      NA     38     NA       NA
## # … with 104 more rows, and 48 more variables: buttigieg <int>,
## #   booker <int>, klobuchar <int>, castro <int>, yang <int>,
## #   gillibrand <int>, hickenlooper <int>, gabbard <int>, delaney <int>,
## #   inslee <int>, ryan <int>, bullock <int>, de_blasio <int>,
## #   bennet <int>, williamson <int>, gravel <int>, swalwell <int>,
## #   moulton <int>, messam <int>, h_clinton <int>, bloomberg <int>,
## #   m_obama <int>, brown <int>, kerry <int>, abrams <int>, holder <int>,
## #   mc_auliffe <int>, winfrey <int>, ojeda <int>, trump <int>,
## #   cuomo <int>, avenatti <int>, kennedy <int>, patrick <int>,
…
