Chapter 5 google trends results | R for Progressive Campaigns
…
Trendy creates an object of class trendy see class(candidate_trends) trendy. There are a number of accessor functions. We will use get_interest() and get_related_queries(). See the documentation of the others.

To access to relative popularity, we will use get_interest(trendy).

popularity <- get_interest(candidate_trends)

popularity

## # A tibble: 65 x 7
##    date                 hits geo   time          keyword  gprop category   
##    <dttm>              <int> <chr> <chr>         <chr>    <chr> <chr>      
##  1 2019-09-05 00:00:00    36 world 2019-09-05 2… Joe Bid… web   All catego…
##  2 2019-09-06 00:00:00    20 world 2019-09-05 2… Joe Bid… web   All catego…
##  3 2019-09-07 00:00:00    18 world 2019-09-05 2… Joe Bid… web   All catego…
##  4 2019-09-08 00:00:00    14 world 2019-09-05 2… Joe Bid… web   All catego…
##  5 2019-09-09 00:00:00    10 world 2019-09-05 2… Joe Bid… web   All catego…
##  6 2019-09-10 00:00:00     9 world 2019-09-05 2… Joe Bid… web   All catego…
##  7 2019-09-11 00:00:00     9 world 2019-09-05 2… Joe Bid… web   All catego…
##  8 2019-09-12 00:00:00    13 world 2019-09-05 2… Joe Bid… web   All catego…
##  9 2019-09-13 00:00:00   100 world 2019-09-05 2… Joe Bid… web   All catego…
## 10 2019-09-14 00:00:00    32 world 2019-09-05 2… Joe Bid… web   All catego…
## # … with 55 more rows
…
