Chapter 3 reporting-googlesheets | R for Progressive Campaigns
…
# read the `goals` tab
goals <- gs_read(sheet, "goals")

## Accessing worksheet titled 'goals'.

## Parsed with column specification:
## cols(
##   week = col_double(),
##   region = col_character(),
##   goal = col_double()
## )

weekly_canvass

## # A tibble: 66 x 4
##    turf_code  week n_pledged vol_yes
##    <chr>     <dbl>     <dbl>   <dbl>
##  1 A             1       114      41
##  2 A             2       109      28
##  3 A             3        96      33
##  4 A             4       121      34
##  5 A             5        95      32
##  6 A             6        99      29
##  7 A             7        78      28
##  8 A             8       111      29
##  9 A             9       119      34
## 10 A            10       119      27
## # … with 56 more rows

goals

## # A tibble: 312 x 3
##     week region  goal
##    <dbl> <chr>  <dbl>
##  1     1 A        120
##  2     1 B        130
##  3     1 C         70
##  4     1 D        120
##  5     1 E         90
##  6     1 F        130
##  7     2 A        110
##  8     2 B         90
##  9     2 C        130
## 10     2 D         70
## # … with 302 more rows
…
