Chapter 7 State Voter Files | R for Pogressive Campaigns
…
Tier 1. Base voters - registered Democrats who have voted Democrat in a primary
Tier 2. Motivation - are not registered with a party but have voted Democrat in a primary
Tier 3. Persuasion - folks that have voted Democrat in a priimary but aren’t registered as such

To begin this process, we want to identify everyone who has voted Democrat in a primary. We will filter sw_clean to these criteria. Then we will count the number of times each voter has voted for a Democrat. This will then be joined back to the original data frame so we can identify those people who have voted Democrat even if it conflicts with their party registration.

# One thing that you will need to do is to identify your target base voters. These will most likely be those who have voted Democrat in previous primaries. Then we will compare those people with their registered party. 
primary_dems <- sw_clean %>% 
  filter(election_type == "PRIMARY",
         party == "Democrat") %>% 
  count(sos_voterid, party)

primary_dems

## # A tibble: 3,588 x 3
##    sos_voterid  party        n
##    <chr>        <chr>    <int>
##  1 OH0010002426 Democrat     1
##  2 OH0010004408 Democrat     1
##  3 OH0010012148 Democrat     1
##  4 OH0010012441 Democrat     3
##  5 OH0010013144 Democrat     1
##  6 OH0010015404 Democrat     1
##  7 OH0010015734 Democrat     1
##  8 OH0010019098 Democrat     2
##  9 OH0010020566 Democrat     1
## 10 OH0010021800 Democrat     1
## # … with 3,578 more rows

Now that we have a table of everyone who has voted for a Democrat in a primary, we need to join this back onto the original voter file. The motivation for this is that by joining back onto the orginal table we can then use some of the other information that it provides such as party affiliation and birth year, among others.

# join these back to the original voter file to get additional information 
potential_targets <- inner_join(primary_dems, swvf, 
                                by = c("sos_voterid" = "SOS_VOTERID")) %>% 
  janitor::clean_names() %>% 
  select(sos_voterid, party_affiliation, precinct_name,
         date_of_birth, registration_date, party, n) %>% 
  mutate(age = as.integer((Sys.Date() - lubridate::ymd(date_of_birth)) / 365))

select(potential_targets, sos_voterid, precinct_name, party_affiliation, age, n) %>% 
  arrange(-n)

## # A tibble: 3,588 x 5
##    sos_voterid  precinct_name            party_affiliation   age     n
##    <chr>        <chr>                    <chr>             <int> <int>
##  1 OH0010322183 PRECINCT ASHTABULA 2-A   D                    68    14
##  2 OH0015532776 ATHENS 3-4               D                    63    14
##  3 OH0010329359 PRECINCT ASHTABULA 5-A   D                    56    13
##  4 OH0014653051 EAST CLEVELAND-03-C      D                    79    13
##  5 OH0014799002 PARMA-04-A               D                    60    13
##  6 OH0014805561 PARMA-05-A               D                    65    13
##  7 OH0015041796 SOLON-02-B               D                    67    13
##  8 OH0010327092 PRECINCT ASHTABULA 2-B   D                    61    12
##  9 OH0010330463 PRECINCT ASHTABULA 5-B   D                    79    12
## 10 OH0011536605 PRECINCT E LIVERPOOL 4-A D                    61    12
## # … with 3,578 more rows
…
