Chapter 6 Web-Scraping: Polling use case | R for Pogressive Campaigns
…
This is much better! But based on visual inspection the column headers are not properly matched. There are a few things that need to be sorted out: there are two date columns, there are commas and percents where numeric columns should be, the column headers are a little messy, and the table isn’t a tibble (this is just personal preference).

We will handle the final two issues first as they are easiest to deal with. The function clean_names() from janitor will handle the column headers, and as_tibble() will coerce the data.frame into a proper tibble. Save this semi-clean tibble into an object called polls.

polls <- session %>% 
  html_node(".polls-table.tracker") %>% 
  html_table(fill = TRUE) %>% 
  janitor::clean_names() %>% 
  as_tibble()

polls

## # A tibble: 163 x 60
##    x     dates pollster sample sample_2 biden sanders warren harris
##    <chr> <chr> <chr>    <chr>  <chr>    <chr> <chr>   <chr>  <chr> 
##  1 •     Jun … Jun 30-… BYouG… 631      LV    21%     10%    18%   
##  2 •     Jun … Jun 29-… B+Ips… 1,173    RV    24%     17%    11%   
##  3 •     Jun … Jun 29-… B+Ips… 1,367    A     22%     16%    9%    
##  4 •     Jun … Jun 27-… BYouG… 1,522    LV    23%     15%    22%   
##  5 •     Jun … Jun 29-… C+Har… 882      RV    28%     14%    9%    
##  6 •     Jun … Jun 28-… C+Cha… 1,185    LV    18%     17%    22%   
##  7 •     Jun … Jun 28-… A+ABC… 460      A     29%     23%    11%   
##  8 •     Jun … Jun 28-… A+ABC… 397      RV    30%     19%    12%   
##  9 •     Jun … Jun 28-… A+ABC… 460      A     25%     18%    9%    
## 10 •     Jun … Jun 28-… A+ABC… 397      RV    28%     16%    10%   
## # … with 153 more rows, and 51 more variables: buttigieg <chr>,
## #   o_rourke <chr>, booker <chr>, klobuchar <chr>, castro <chr>,
## #   yang <chr>, gillibrand <chr>, gabbard <chr>, hickenlooper <chr>,
## #   delaney <chr>, inslee <chr>, ryan <chr>, bennet <chr>,
## #   de_blasio <chr>, bullock <chr>, williamson <chr>, moulton <chr>,
## #   swalwell <chr>, gravel <chr>, messam <chr>, sestak <chr>,
## #   h_clinton <chr>, bloomberg <chr>, m_obama <chr>, brown <chr>,
## #   kerry <chr>, abrams <chr>, holder <chr>, mc_auliffe <chr>,
## #   winfrey <chr>, ojeda <chr>, trump <chr>, cuomo <chr>, avenatti <chr>,
…
Now we can try implementing the hacky solution. Here we will deselect the first column and reset the names using setNames(). Following, we will use the mutate_at() variant to remove the percent sign from every candidate column and coerce them into integer columns. Here we will specify which variables to not mutate at within vars().

polls %>% 
  select(-1) %>%  
  setNames(new_names)%>%
  select(-1) %>%
  mutate_at(vars(-c("dates", "pollster", "sample", "sample_2")), 
            ~as.integer(str_remove(., "%")))

## Warning in (structure(function (..., .x = ..1, .y = ..2, . = ..1) : NAs
## introduced by coercion

## # A tibble: 163 x 58
##    dates pollster sample sample_2 biden sanders warren harris buttigieg
##    <chr> <chr>    <chr>  <chr>    <int>   <int>  <int>  <int>     <int>
##  1 Jun … BYouGov  631    LV          21      10     18     13         9
##  2 Jun … B+Ipsos  1,173  RV          24      17     11     11         4
##  3 Jun … B+Ipsos  1,367  A           22      16      9     10         3
##  4 Jun … BYouGov… 1,522  LV          23      15     22     17         7
##  5 Jun … C+Harri… 882    RV          28      14      9     13         4
##  6 Jun … C+Chang… 1,185  LV          18      17     22     21        10
##  7 Jun … A+ABC N… 460    A           29      23     11     11         4
##  8 Jun … A+ABC N… 397    RV          30      19     12     13         4
##  9 Jun … A+ABC N… 460    A           25      18      9      9         3
## 10 Jun … A+ABC N… 397    RV          28      16     10     11         3
## # … with 153 more rows, and 49 more variables: o_rourke <int>,
## #   booker <int>, klobuchar <int>, castro <int>, yang <int>,
## #   gillibrand <int>, gabbard <int>, hickenlooper <int>, delaney <int>,
## #   inslee <int>, ryan <int>, bennet <int>, de_blasio <int>,
## #   bullock <int>, williamson <int>, moulton <int>, swalwell <int>,
## #   gravel <int>, messam <int>, sestak <int>, h_clinton <int>,
## #   bloomberg <int>, m_obama <int>, brown <int>, kerry <int>,
## #   abrams <int>, holder <int>, mc_auliffe <int>, winfrey <int>,
## #   ojeda <int>, trump <int>, cuomo <int>, avenatti <int>, kennedy <int>,
…
Now we must tidy the data. We will use tidyr::gather() to transform the data from wide to long. In short, gather takes the column headers (the key argument) and creates a new variable from the values of the columns (the value argument). In this case, we will create a new column called candidate from the column headers and a second column called points which are a candidates polling percentage. Next we deselect any columns that we do not want to be gathered.

polls %>% 
  select(-1) %>% 
  setNames(new_names)%>%
  select(-1) %>%
  mutate_at(vars(-c("dates", "pollster", "sample", "sample_2")),
            ~as.integer(str_remove(., "%"))) %>% 
  gather(candidate, points, -dates, -pollster, -sample, -sample_2)

## Warning in (structure(function (..., .x = ..1, .y = ..2, . = ..1) : NAs
## introduced by coercion

## # A tibble: 8,802 x 6
##    dates            pollster               sample sample_2 candidate points
##    <chr>            <chr>                  <chr>  <chr>    <chr>      <int>
##  1 Jun 30-Jul 2, 2… BYouGov                631    LV       biden         21
##  2 Jun 29-Jul 2, 2… B+Ipsos                1,173  RV       biden         24
##  3 Jun 29-Jul 2, 2… B+Ipsos                1,367  A        biden         22
##  4 Jun 27-Jul 2, 2… BYouGov Blue           1,522  LV       biden         23
##  5 Jun 29-Jul 1, 2… C+HarrisX              882    RV       biden         28
##  6 Jun 28-Jul 1, 2… C+Change Research      1,185  LV       biden         18
##  7 Jun 28-Jul 1, 2… A+ABC News/Washington… 460    A        biden         29
##  8 Jun 28-Jul 1, 2… A+ABC News/Washington… 397    RV       biden         30
##  9 Jun 28-Jul 1, 2… A+ABC News/Washington… 460    A        biden         25
## 10 Jun 28-Jul 1, 2… A+ABC News/Washington… 397    RV       biden         28
## # … with 8,792 more rows
…
## Warning in (structure(function (..., .x = ..1, .y = ..2, . = ..1) : NAs
## introduced by coercion

polls_tidy

## # A tibble: 8,802 x 6
##    dates          pollster            sample sample_2      candidate points
##    <chr>          <chr>                <int> <chr>         <chr>      <int>
##  1 Jun 30-Jul 2,… BYouGov                631 Likely Voters biden         21
##  2 Jun 29-Jul 2,… B+Ipsos               1173 Registered V… biden         24
##  3 Jun 29-Jul 2,… B+Ipsos               1367 Adults        biden         22
##  4 Jun 27-Jul 2,… BYouGov Blue          1522 Likely Voters biden         23
##  5 Jun 29-Jul 1,… C+HarrisX              882 Registered V… biden         28
##  6 Jun 28-Jul 1,… C+Change Research     1185 Likely Voters biden         18
##  7 Jun 28-Jul 1,… A+ABC News/Washing…    460 Adults        biden         29
##  8 Jun 28-Jul 1,… A+ABC News/Washing…    397 Registered V… biden         30
##  9 Jun 28-Jul 1,… A+ABC News/Washing…    460 Adults        biden         25
## 10 Jun 28-Jul 1,… A+ABC News/Washing…    397 Registered V… biden         28
## # … with 8,792 more rows
…
## [1] "2019-07-01"

We can use this new function to create two new columns poll_start and poll_end using mutate(). Following this we can deselect the original dates column, remove any observations missing a points value, remove duplicates using distinct(), and save this to polls_clean.

polls_clean <- polls_tidy %>% 
  mutate(poll_start = clean_date(dates, "first"),
         poll_end = clean_date(dates, "second")) %>% 
  select(-dates) %>% 
  filter(!is.na(points)) %>% 
  distinct()

polls_clean

## # A tibble: 2,854 x 7
##    pollster       sample sample_2    candidate points poll_start poll_end  
##    <chr>           <int> <chr>       <chr>      <int> <date>     <date>    
##  1 BYouGov           631 Likely Vot… biden         21 2019-06-30 2019-07-02
##  2 B+Ipsos          1173 Registered… biden         24 2019-06-30 2019-07-02
##  3 B+Ipsos          1367 Adults      biden         22 2019-06-30 2019-07-02
##  4 BYouGov Blue     1522 Likely Vot… biden         23 2019-06-30 2019-07-02
##  5 C+HarrisX         882 Registered… biden         28 2019-06-30 2019-07-02
##  6 C+Change Rese…   1185 Likely Vot… biden         18 2019-06-30 2019-07-02
##  7 A+ABC News/Wa…    460 Adults      biden         29 2019-06-30 2019-07-02
##  8 A+ABC News/Wa…    397 Registered… biden         30 2019-06-30 2019-07-02
##  9 A+ABC News/Wa…    460 Adults      biden         25 2019-06-30 2019-07-02
## 10 A+ABC News/Wa…    397 Registered… biden         28 2019-06-30 2019-07-02
## # … with 2,844 more rows
…
The cleaned data can be aggregated and visualized.

avg_polls <- polls_clean %>% 
  group_by(candidate) %>% 
  summarise(avg_points = mean(points, na.rm = TRUE),
            min_points = min(points, na.rm = TRUE),
            max_points = max(points, na.rm = TRUE),
            n_polls = n() - sum(is.na(points))) %>% # identify how many polls candidate is in
  # remove candidates who appear in 50 or fewer polls: i.e. HRC
  filter(n_polls > 50) %>% 
  arrange(-avg_points)

avg_polls

## # A tibble: 23 x 5
##    candidate avg_points min_points max_points n_polls
##    <chr>          <dbl>      <dbl>      <dbl>   <int>
##  1 biden          31.7           9         66     151
##  2 sanders        19.0           4         42     152
##  3 warren         10.0           2         43     152
##  4 harris          9.48          2         41     152
##  5 o_rourke        5.53          1         21     144
##  6 buttigieg       5.27          0         21     119
##  7 booker          2.99          0          9     143
##  8 klobuchar       1.55          0          5     132
##  9 yang            1.15          0          3      99
## 10 castro          1.14          0         12     135
## # … with 13 more rows
…
## Parsed with column specification:
## cols(
##   pollster = col_character(),
##   sample = col_double(),
##   sample_2 = col_character(),
##   candidate = col_character(),
##   points = col_double(),
##   poll_start = col_date(format = ""),
##   poll_end = col_date(format = "")
## )

old_polls

## # A tibble: 1,564 x 7
##    pollster       sample sample_2    candidate points poll_start poll_end  
##    <chr>           <dbl> <chr>       <chr>      <dbl> <date>     <date>    
##  1 C+HarrisX         370 Registered… klobuchar      2 2019-06-06 2019-06-10
##  2 C+HarrisX         448 Registered… gillibra…      1 2019-06-06 2019-06-10
##  3 B-Morning Con…  11627 Likely Vot… harris        13 2019-06-06 2019-06-10
##  4 B-Morning Con…    699 Registered… delaney        0 2019-06-06 2019-06-10
##  5 C+HarrisX         743 Registered… williams…      1 2019-06-06 2019-06-10
##  6 A-Quinnipiac …    559 Registered… gabbard        0 2019-06-06 2019-06-10
##  7 B-Morning Con…  14250 Likely Vot… gillibra…      2 2019-06-06 2019-06-10
##  8 A-Quinnipiac …    559 Registered… gillibra…      0 2019-06-06 2019-06-10
##  9 B-Morning Con…  14250 Likely Vot… harris         6 2019-06-06 2019-06-10
## 10 A+Monmouth Un…    330 Registered… warren         8 2019-06-06 2019-06-10
## # … with 1,554 more rows

updated_polls <- bind_rows(old_polls, polls_clean) %>% 
  distinct()

updated_polls

## # A tibble: 4,418 x 7
##    pollster       sample sample_2    candidate points poll_start poll_end  
##    <chr>           <dbl> <chr>       <chr>      <dbl> <date>     <date>    
##  1 C+HarrisX         370 Registered… klobuchar      2 2019-06-06 2019-06-10
##  2 C+HarrisX         448 Registered… gillibra…      1 2019-06-06 2019-06-10
##  3 B-Morning Con…  11627 Likely Vot… harris        13 2019-06-06 2019-06-10
##  4 B-Morning Con…    699 Registered… delaney        0 2019-06-06 2019-06-10
##  5 C+HarrisX         743 Registered… williams…      1 2019-06-06 2019-06-10
##  6 A-Quinnipiac …    559 Registered… gabbard        0 2019-06-06 2019-06-10
##  7 B-Morning Con…  14250 Likely Vot… gillibra…      2 2019-06-06 2019-06-10
##  8 A-Quinnipiac …    559 Registered… gillibra…      0 2019-06-06 2019-06-10
##  9 B-Morning Con…  14250 Likely Vot… harris         6 2019-06-06 2019-06-10
## 10 A+Monmouth Un…    330 Registered… warren         8 2019-06-06 2019-06-10
## # … with 4,408 more rows
…
