Chapter 2 calculating PTG | R for Pogressive Campaigns
…
library(tidyverse)
library(lubridate)

canvass <- read_csv("data/canvassing_results.csv")

## Parsed with column specification:
## cols(
##   van_id = col_double(),
##   date = col_date(format = ""),
##   vol_yes = col_double()
## )

canvass

## # A tibble: 6,671 x 3
##    van_id date       vol_yes
##     <dbl> <date>       <dbl>
##  1      1 2019-03-15       1
##  2      2 2019-01-30       1
##  3      3 2019-02-27       0
##  4      4 2019-02-21       0
##  5      5 2019-01-13       0
##  6      6 2019-01-29       0
##  7      7 2019-01-07       0
##  8      8 2019-02-15       0
##  9      9 2019-01-30       0
## 10     10 2019-03-06       0
## # … with 6,661 more rows
…
That is a lot of volunteers! They will go into the volunter recruitment and management pipeline and hopefully convert into some volunteer shifts. But which region are these potential volunteers in? To figure this out we will have to read in the van_turf_lookup.csv dataset.

turf_lookup <- read_csv("data/van_turf_lookup.csv")

## Parsed with column specification:
## cols(
##   van_id = col_double(),
##   turf_code = col_character()
## )

turf_lookup 

## # A tibble: 6,004 x 2
##    van_id turf_code
##     <dbl> <chr>    
##  1      1 B        
##  2      2 E        
##  3      3 E        
##  4      4 B        
##  5      5 C        
##  6      6 E        
##  7      7 B        
##  8      8 C        
##  9      9 D        
## 10     10 A        
## # … with 5,994 more rows

Here we see that there are only two variables, van_id, and turf_code. This is a very common structure in relational data architectures. Because this table and the canvass table both share the van_id column we can merge the who based on this. This is referred to as a “common identifier”. The operation of joining two tables together is called a join.

For more on joins and relational data please read chapter 13 of R for Data Science by Hadley Wickham.

left_join(canvass, turf_lookup, by = "van_id") 

## # A tibble: 6,671 x 4
##    van_id date       vol_yes turf_code
##     <dbl> <date>       <dbl> <chr>    
##  1      1 2019-03-15       1 B        
##  2      2 2019-01-30       1 E        
##  3      3 2019-02-27       0 E        
##  4      4 2019-02-21       0 B        
##  5      5 2019-01-13       0 C        
##  6      6 2019-01-29       0 E        
##  7      7 2019-01-07       0 B        
##  8      8 2019-02-15       0 C        
##  9      9 2019-01-30       0 D        
## 10     10 2019-03-06       0 A        
## # … with 6,661 more rows

This code node provides the turf codes for each van_id, but we still do not have the week that each observation belongs to.We are interested in the weekly pledge card goal so it is important to extract the calendar week from the date field. We will use the function lubridate::week() to do this.

We will pipe the resultant table from the join into a mutate call where we will create this new variable and save it to an object called canvass_clean.

canvass_clean <- left_join(canvass, turf_lookup, by = "van_id") %>% 
  mutate(week = week(date))

canvass_clean

## # A tibble: 6,671 x 5
##    van_id date       vol_yes turf_code  week
##     <dbl> <date>       <dbl> <chr>     <dbl>
##  1      1 2019-03-15       1 B            11
##  2      2 2019-01-30       1 E             5
##  3      3 2019-02-27       0 E             9
##  4      4 2019-02-21       0 B             8
##  5      5 2019-01-13       0 C             2
##  6      6 2019-01-29       0 E             5
##  7      7 2019-01-07       0 B             1
##  8      8 2019-02-15       0 C             7
##  9      9 2019-01-30       0 D             5
## 10     10 2019-03-06       0 A            10
## # … with 6,661 more rows
…
count(canvass_clean, turf_code, week)

## # A tibble: 66 x 3
##    turf_code  week     n
##    <chr>     <dbl> <int>
##  1 A             1   114
##  2 A             2   109
##  3 A             3    96
##  4 A             4   121
##  5 A             5    95
##  6 A             6    99
##  7 A             7    78
##  8 A             8   111
##  9 A             9   119
## 10 A            10   119
## # … with 56 more rows

Though these counts (you may be more familiar with the phrase cross-tabs) are extremely useful, we still want to know the number of volunteers pledged. For more control over the aggregate measures, we will use dplyr::group_by() and dplyr::summarise() (for more see chapter 5.6 in R for Data Science).

We will create a new table called weekly_canvass which is grouped by turf code and week. This table will have a column for turf_code, week, the number of people pledged to vote n_pledged, and the number of people who indicated they would volunteer vol_yes.

weekly_canvass <- canvass_clean %>% 
  group_by(turf_code, week) %>% 
  summarise(n_pledged = n(),
            vol_yes = sum(vol_yes))

weekly_canvass

## # A tibble: 66 x 4
## # Groups:   turf_code [6]
##    turf_code  week n_pledged vol_yes
##    <chr>     <dbl>     <int>   <dbl>
##  1 A             1       114      41
##  2 A             2       109      28
##  3 A             3        96      33
##  4 A             4       121      34
##  5 A             5        95      32
##  6 A             6        99      29
##  7 A             7        78      28
##  8 A             8       111      29
##  9 A             9       119      34
## 10 A            10       119      27
## # … with 56 more rows

Now that we have our counts of pledges and volunteers by week and turf code we need to compare this to their weekly goal. The weekly goals are in goals.csv.

goals <- read_csv("data/goals.csv")

## Parsed with column specification:
## cols(
##   week = col_double(),
##   region = col_character(),
##   goal = col_double()
## )

goals

## # A tibble: 312 x 3
##     week region  goal
##    <dbl> <chr>  <dbl>
##  1     1 A        120
##  2     1 B        130
##  3     1 C         70
##  4     1 D        120
##  5     1 E         90
##  6     1 F        130
##  7     2 A        110
##  8     2 B         90
##  9     2 C        130
## 10     2 D         70
## # … with 302 more rows

Again, this data will need to be joined. What is unique here though is that there is not a single common identifier column. We will need to join on two columns. Namely, region (turf code), and week. Notice that we have mismatched names. To perform a join in this scenario we will need to provide a named vector to the by argument (more on named vectors in chapter 20.4.4 in R for Data Science). The name of the vector element is the column name in the left hand table and the value is the name of the column in the right hand table.

In our case, the left hand table is weekly_canvass which has the column name turf_code. The right hand table is goals which has the column name region. To match on this we have to provide the named vector c("turf_code" = "region). Since the second column we are matching on is week which is present in both tables, this element does not have to be named. Thus the vector we will use is c("turf_code" = "region", "week").

left_join(weekly_canvass, goals, by = c("turf_code" = "region", "week"))

## # A tibble: 66 x 5
## # Groups:   turf_code [6]
##    turf_code  week n_pledged vol_yes  goal
##    <chr>     <dbl>     <int>   <dbl> <dbl>
##  1 A             1       114      41   120
##  2 A             2       109      28   110
##  3 A             3        96      33    60
##  4 A             4       121      34    60
##  5 A             5        95      32    90
##  6 A             6        99      29   120
##  7 A             7        78      28   110
##  8 A             8       111      29   130
##  9 A             9       119      34   130
## 10 A            10       119      27   130
## # … with 56 more rows

With this join we see that we have the goal and the actual number pledged. We’re one step away from calculating the PTG! To calculate the percent we need to divide the actual number by the goal and multiply by 100. We will do this within a mutate call after we join and save this to a new object ptg.

ptg <- left_join(weekly_canvass, goals, by = c("turf_code" = "region", "week")) %>% 
  mutate(ptg = (n_pledged / goal) * 100)

ptg

## # A tibble: 66 x 6
## # Groups:   turf_code [6]
##    turf_code  week n_pledged vol_yes  goal   ptg
##    <chr>     <dbl>     <int>   <dbl> <dbl> <dbl>
##  1 A             1       114      41   120  95  
##  2 A             2       109      28   110  99.1
##  3 A             3        96      33    60 160  
##  4 A             4       121      34    60 202. 
##  5 A             5        95      32    90 106. 
##  6 A             6        99      29   120  82.5
##  7 A             7        78      28   110  70.9
##  8 A             8       111      29   130  85.4
##  9 A             9       119      34   130  91.5
## 10 A            10       119      27   130  91.5
## # … with 56 more rows
…
